…
### 台灣大專院校的學生最喜歡去哪些國家進修交流呢？

``` r
Q5<-ComPop
Q5$小計<-as.numeric(Q5$小計)
a<-group_by(Q5,`國別`) %>% 
   summarise(total=sum(小計))
Q5<-full_join(a,code,by="國別")
Q5<-Q5[order(Q5$total,decreasing = T),]
Q5[grep("[A-Z]{3}",Q5$ISO,invert=T),]
```

    ## # A tibble: 75 x 3
    ##    國別              total ISO  
    ##    <chr>             <dbl> <chr>
    ##  1 中國大陸         10429. <NA> 
    ##  2 大陸地區          5996. <NA> 
    ##  3 南韓              2498. <NA> 
    ##  4 大韓民國(南韓)    2131. <NA> 
    ##  5 德意志聯邦共和國  1458. <NA> 
    ##  6 澳大利亞           926. <NA> 
    ##  7 泰王國(泰國)       567. <NA> 
    ##  8 新加坡共和國       479. <NA> 
    ##  9 西班牙王國         478. <NA> 
    ## 10 荷蘭王國           349. <NA> 
    ## # ... with 65 more rows
…
